[
{
    "fields": {
        "author": 2,
        "title": "My first post",
        "text": "Today we are learning about the django static files. we learned lot of good information which was relative to how to display the static files like css and java script. we learned about STATICFILES_DIR and we also learned about the STATIC_ROOT.",
        "published_date": "2017-06-03T05:03:20Z",
        "created_date": "2017-06-02T05:02:35Z",
        "email": "tuxfux.hlp@gmail.com"
    },
    "model": "blog.post",
    "pk": 2
},
{
    "fields": {
        "author": 2,
        "title": " My second post",
        "text": "we have already learned about templates. We are tyring to integrate the ORM backend data into our html pages.\r\nLets hope we will get the data from the backend database into our html pages.",
        "published_date": "2017-06-03T05:03:53Z",
        "created_date": "2017-06-03T05:03:25Z",
        "email": "tuxfux.hlp@gmail.com"
    },
    "model": "blog.post",
    "pk": 3
},
{
    "fields": {
        "author": 2,
        "title": "third title",
        "text": "This is the content for the django ORM shell",
        "published_date": null,
        "created_date": "2017-06-03T05:19:44Z",
        "email": "tuxfux.hlp@gmail.com"
    },
    "model": "blog.post",
    "pk": 4
},
{
    "fields": {
        "author": 2,
        "title": "Fourth Post",
        "text": "This is my fourth post",
        "published_date": null,
        "created_date": "2017-06-04T05:07:20Z",
        "email": "tuxfux.hlp@gmail.com"
    },
    "model": "blog.post",
    "pk": 5
},
{
    "fields": {
        "author": 1,
        "title": "Fifth Post",
        "text": "I am good with the content writing. I am tying to test my django pages.",
        "published_date": "2017-06-04T05:29:55Z",
        "created_date": "2017-06-04T05:29:33Z",
        "email": "admin@gmail.com"
    },
    "model": "blog.post",
    "pk": 6
},
{
    "fields": {
        "author": 2,
        "title": "hello there",
        "text": "hello there how are you doing.",
        "published_date": null,
        "created_date": "2017-06-10T05:34:12Z",
        "email": "kiran@gmail.com"
    },
    "model": "blog.post",
    "pk": 7
},
{
    "fields": {
        "author": 1,
        "title": "First blog of keethan",
        "text": "Hey i am keerthan.",
        "published_date": null,
        "created_date": "2017-06-11T05:30:26Z",
        "email": "keerthan@edu.com"
    },
    "model": "blog.post",
    "pk": 8
},
{
    "fields": {
        "title": "ABC Publication"
    },
    "model": "blog.publication",
    "pk": 1
},
{
    "fields": {
        "title": "BCD Publication"
    },
    "model": "blog.publication",
    "pk": 2
},
{
    "fields": {
        "title": "CDE publication"
    },
    "model": "blog.publication",
    "pk": 3
},
{
    "fields": {
        "headline": "Tubelight",
        "publications": [
            1,
            2
        ]
    },
    "model": "blog.article",
    "pk": 1
},
{
    "fields": {
        "headline": "Sultan",
        "publications": [
            1
        ]
    },
    "model": "blog.article",
    "pk": 2
},
{
    "fields": {
        "headline": "Bahubali",
        "publications": [
            1,
            2,
            3
        ]
    },
    "model": "blog.article",
    "pk": 3
},
{
    "fields": {
        "name": "Raghavendra",
        "address": "Ameerpet"
    },
    "model": "blog.place",
    "pk": 1
},
{
    "fields": {
        "name": "Santosh Dhaba",
        "address": "Paradise"
    },
    "model": "blog.place",
    "pk": 2
},
{
    "fields": {
        "name": "chutneys",
        "address": "kukatpally"
    },
    "model": "blog.place",
    "pk": 3
},
{
    "fields": {
        "serves_hot_dogs": true,
        "serves_pizza": false
    },
    "model": "blog.restaurant",
    "pk": 1
},
{
    "fields": {
        "serves_hot_dogs": true,
        "serves_pizza": true
    },
    "model": "blog.restaurant",
    "pk": 2
},
{
    "fields": {
        "serves_hot_dogs": false,
        "serves_pizza": true
    },
    "model": "blog.restaurant",
    "pk": 3
},
{
    "fields": {
        "name": "kumar",
        "restaurant": 2
    },
    "model": "blog.waiter",
    "pk": 1
},
{
    "fields": {
        "name": "santosh",
        "restaurant": 2
    },
    "model": "blog.waiter",
    "pk": 2
},
{
    "fields": {
        "name": "santosh",
        "restaurant": 3
    },
    "model": "blog.waiter",
    "pk": 3
}
]
